<?xml version="1.0" encoding="utf-8"?>
<!-- Generator: Adobe Illustrator 15.1.0, SVG Export Plug-In . SVG Version: 6.00 Build 0)  -->
<!DOCTYPE svg PUBLIC "-//W3C//DTD SVG 1.1//EN" "http://www.w3.org/Graphics/SVG/1.1/DTD/svg11.dtd" [
	<!ENTITY ns_flows "http://ns.adobe.com/Flows/1.0/">
	<!ENTITY ns_extend "http://ns.adobe.com/Extensibility/1.0/">
	<!ENTITY ns_ai "http://ns.adobe.com/AdobeIllustrator/10.0/">
	<!ENTITY ns_graphs "http://ns.adobe.com/Graphs/1.0/">
]>
<svg version="1.1" id="Layer_1" xmlns:x="&ns_extend;" xmlns:i="&ns_ai;" xmlns:graph="&ns_graphs;"
	 xmlns="http://www.w3.org/2000/svg" xmlns:xlink="http://www.w3.org/1999/xlink" xmlns:a="http://ns.adobe.com/AdobeSVGViewerExtensions/3.0/"
	 x="0px" y="0px" viewBox="0 0 293 293" style="enable-background:new 0 0 293 293;"
	 xml:space="preserve">
<g>
	<path style="fill:#DEECF3;" d="M146.84,292.451c80.91,0,146.5-65.59,146.5-146.5s-65.59-146.5-146.5-146.5
		c-80.91,0-146.5,65.59-146.5,146.5S65.93,292.451,146.84,292.451"/>
</g>
<g>
	<path style="fill:#454D51;" d="M118.47,65.444c0.065,0.495,0.186,0.975,0.361,1.442c0.161,0.507,1.745,0.059,1.593-0.427
		c-0.178-0.465-0.299-0.946-0.361-1.44C119.97,64.528,118.369,64.914,118.47,65.444z"/>
	<path style="fill:#454D51;" d="M126.213,62.696c0.009,0.375,0.073,0.74,0.194,1.094c0.105,0.384,1.421,0.033,1.32-0.353
		c-0.124-0.355-0.189-0.718-0.198-1.093C127.493,61.993,126.171,62.266,126.213,62.696z"/>
	<path style="fill:#454D51;" d="M167.764,69.611c-0.231,0.713-0.799,1.212-1.51,1.81c-0.203,0.171,0.239,0.204,0.366,0.098
		c1.189-1.003,1.937-1.698,1.651-3.334c-0.031-0.177-0.479-0.067-0.445,0.118c0.041,0.234,0.051,0.443,0.046,0.641
		c-0.15-0.273-0.287-0.555-0.39-0.852c-0.19-0.598-2.415-0.289-2.345-0.061c0.172,0.536,0.42,0.954,0.71,1.436
		C166.056,69.807,167.177,69.771,167.764,69.611z"/>
	<path style="fill:#454D51;" d="M175.094,73.236c-0.889-0.572-1.649-1.195-2.249-2.069c-0.33-0.479-2.504-0.053-2.244,0.326
		c0.603,0.874,1.364,1.497,2.249,2.066C173.413,73.921,175.271,73.35,175.094,73.236z"/>
	<path style="fill:#454D51;" d="M123.583,72.039c1.9,0.217,3.256-0.204,4.975-0.884c0.282-0.111,0.034-0.369-0.203-0.276
		c-1.601,0.632-2.841,1.028-4.62,0.822C123.508,71.674,123.282,72.003,123.583,72.039z"/>
	<path style="fill:#454D51;" d="M125.813,72.761c-0.22,0.024-0.367,0.289-0.057,0.257c0.527-0.058,0.496-0.049,0.992-0.183
		c0.268-0.072,0.206-0.305-0.062-0.232C126.396,72.656,126.107,72.709,125.813,72.761z"/>
	<path style="fill:#454D51;" d="M167.877,66.673c0.145,0.114,0.541-0.093,0.345-0.248c-0.378-0.3-0.73-0.481-1.173-0.666
		c-0.175-0.073-0.52,0.179-0.26,0.288C167.2,66.174,167.564,66.382,167.877,66.673z"/>
	<path style="fill:#454D51;" d="M174.902,71.053c0.132,0.159,0.555-0.021,0.405-0.197c-0.64-0.766-1.373-1.462-2.391-1.61
		c-0.222-0.032-0.454,0.286-0.151,0.33C173.689,69.71,174.338,70.379,174.902,71.053z"/>
	<path style="fill:#454D51;" d="M167.092,72.465c-0.206-0.176-0.409-0.353-0.615-0.531c-0.145-0.152-0.564,0.032-0.406,0.2
		c0.353,0.376,0.254,0.293,0.677,0.596C166.916,72.851,167.303,72.619,167.092,72.465z"/>
	<path style="fill:#454D51;" d="M168.43,75.465c-0.71-0.113-1.175-0.495-1.705-0.936c-0.121-0.099-0.533,0.075-0.417,0.172
		c0.578,0.478,1.094,0.881,1.846,1.001C168.291,75.723,168.681,75.506,168.43,75.465z"/>
	<path style="fill:#454D51;" d="M191.561,56.153c-0.087-0.013-0.193,0.002-0.307,0.028c0.04-0.065,0.061-0.136,0.054-0.209
		c-0.536-5.616-6.156-9.027-11.386-8.904c-2.684,0.062-10.269,0.072-11.713,3.151c-0.066,0.04-0.132,0.082-0.18,0.138
		c-2.3,2.674-5.42,3.657-7.241,6.716c-1.651,2.773-1.911,5.677-1.846,8.801c0.092,4.703,0.617,11.613,4.464,14.896
		c0.093,0.079,0.213,0.112,0.341,0.127c-0.099,0.1-0.198,0.198-0.292,0.31c-1.282,1.531-1.602,3.64-2.721,5.272
		c-0.028,0.042-0.028,0.072-0.032,0.104c-7.278-2.064-15.889-2.422-23.044-3.949c-2.667-0.568-4.186,1.301-5.251,3.373
		c-1.578,3.071-3.172,6.136-4.759,9.205c-0.982-3.536-2.237-6.99-3.515-10.428c-0.624-1.684-1.026-3.459-2.045-4.564
		c0.02-0.085-0.035-0.153-0.195-0.191c-0.428-0.397-0.958-0.685-1.64-0.819c-0.581-0.449-1.209-0.777-1.842-1.164
		c-0.09-0.055-0.223-0.066-0.368-0.059c-0.118-0.288-0.207-0.584-0.167-0.902c0.102-0.818-1.601-0.567-1.691,0.146
		c-0.026,0.21-0.008,0.405,0.025,0.596c-0.096,0.009-0.208,0.033-0.326,0.067c-0.209-0.304-0.501-0.524-0.916-0.596
		c-1.233-0.215-2.249-0.952-3.352-1.506c-0.93-0.467-1.908-1.245-2.918-1.533c0.216-0.318,0.414-0.645,0.543-1.032
		c0.181-0.539-0.045-1.226-0.203-1.839c0.055-0.069,0.092-0.143,0.098-0.224c0.132-1.89-1.498-1.498-1.374-3.236
		c0.036-0.479,0.131-0.957,0.192-1.432c0.075-0.595,0.048-0.758-0.052-0.798c0.558,0.223,1.082,0.483,1.708,0.315
		c0.692-0.185,0.909-0.83,1.474-1.112c0.756-0.378,1.185-0.671,1.622-1.405c0.905-1.519,1.814-2.611,3.622-3.044
		c0.612-0.147,1.16-0.375,1.624-0.772c0.085-0.018,0.17-0.041,0.254-0.075c2.044-0.833,4.333-0.633,6.449-1.216
		c1.157-0.32,2.258-0.779,3.343-1.275c-0.101,1.968,0.842,3.728,1.187,5.655c0.141,0.789,0.44,1.453,0.758,2.184
		c0.818,1.883-0.152,4.161-0.701,5.978c-1.455,4.807-6.092,6.556-10.652,5.095c-2.326-0.746-4.439-2.361-6.699-3.327
		c-0.468-0.198-1.298,0.471-0.646,0.75c4.695,2.004,11.156,6.771,16.066,2.369c2.424-2.173,3.171-5.276,3.986-8.285
		c0.935-3.453-2.523-7.198-2.162-10.774c0.007-0.065-0.006-0.118-0.027-0.165c0.65-0.308,1.3-0.615,1.957-0.904
		c1.956-0.861,1.92-1.869,2.599-3.859c0.324-0.949-1.973-0.677-2.278,0.211c-0.056,0.17-0.535,2.145-0.611,2.181
		c-1.268,0.6-2.559,1.175-3.837,1.761c-3.148,1.445-6.547,1.148-9.696,2.429c-0.617,0.251-0.731,0.587-0.575,0.855
		c-0.051,0.039-0.098,0.079-0.158,0.115c-0.603-0.761-1.188-1.532-1.878-2.221c-0.84-0.835-2.1-1.246-3.131-1.783
		c-0.277-0.144-1.31,0.278-0.902,0.491c1.015,0.528,2.123,0.94,2.99,1.704c0.725,0.636,1.291,1.459,1.883,2.22
		c-0.644,0.193-1.337,0.347-1.746,0.526c-0.779,0.344-1.251,0.964-1.711,1.647c-0.759,1.13-1.221,1.802-2.39,2.559
		c-0.588,0.379-0.944,0.077-1.686,0.053c-1.756-0.056-1.608,1.779-1.787,3c-0.087,0.601-0.297,1.682,0.067,2.238
		c0.018,0.027,0.04,0.045,0.059,0.069c-1.469-1.371-3.026-2.567-4.421-4.143c-1.37-1.545-2.307-3.379-2.861-5.354
		c-0.53-1.895,0.122-7.644,3.059-7.921c0.357-0.034,0.624-0.238,0.759-0.474c0.63,0.04,1.438-0.307,1.543-0.92
		c1.13-6.617,9.379-8.122,14.927-6.462c2.339,0.7,4.081,2.879,6.615,1.698c1.396-0.651,0.155-1.97-1.026-1.42
		c-0.648,0.304-5.68-2.271-6.618-2.527c-2.32-0.635-4.812-0.105-7.086,0.445c-2.488,0.601-4.997,1.564-7.15,2.95
		c-1.657,1.065-1.666,3.738-1.952,5.436c-3.703,0.448-4.922,5.005-4.939,8.175c-0.03,6.076,6.213,9.214,9.505,13.249
		c0.2,0.245,0.563,0.284,0.898,0.205c0.027,0.2,0.044,0.402,0.038,0.61c-0.009,0.279-0.21,0.594-0.441,0.896
		c-0.279,0.07-0.524,0.178-0.594,0.326c-0.093,0.196-0.171,0.403-0.224,0.613c-0.083,0.007-0.167,0.015-0.265,0.043
		c-3.474,1.026-5.04,3.583-6.211,6.914c-1.907,5.429-4.879,10.32-6.668,15.867c-0.782,2.426,1.333,4.327,3.948,5.714
		c-0.153,2.999-0.466,6.77-1.043,9.723c-0.527,2.699-1.481,2.598,1.253,4.609c0.074,0.055,0.158,0.103,0.233,0.156
		c-0.017,0.062-0.045,0.121-0.036,0.188c1.068,8.174,3.295,16.57,3.144,24.836c-0.139,7.672-3.229,16.549-2.169,24.191
		c0.064,0.469,0.882,0.371,1.221,0.301c0,0.004,0.001,0.008,0.002,0.012c-2.083,0.67,6.06,8.264,6.983,8.801
		c2.943,1.711,5.908,2.227,9.254,2.174c0.434-0.006,9.155-0.387,7.05-3.051c-0.072-0.092-0.152-0.176-0.227-0.266
		c2.976-0.393,6.727-1.395,3.779-4.857c-2.712-3.18-9.523-0.449-10.608-5.262c0.059-14.043,5.196-28.169,4.709-42.201
		c0.026-0.014,0.054-0.021,0.08-0.034c3.636-1.936,3.854-7.914,3.884-11.948c8.384,1.699,16.472,4.706,25.019,5.685
		c1.013,0.117,3.764,0.424,4.293-0.896c2.094-5.191,4.329-10.029,6.93-14.786c-1.104,8.35-3.514,16.382-4.393,24.636
		c-0.2,1.883-2.232,5.623,0.383,6.869c2.694,1.289,5.452,1.803,8.28,2.079c0.096,7.855,0.968,15.848-0.731,23.586
		c-1.405,6.398-10.018,10.176-13.803,15.176c-0.116,0.152-0.071,0.377,0.118,0.445c3.49,1.283,11.34-4.943,12.958-2.32
		c0.27,0.436,1.237,0.031,1.502-0.193c0.905-0.768,0.978-1.867,1.255-3.004c0.696-2.859,2.508-5.102,3.41-7.846
		c2.724-8.273,2.012-16.814,1.91-25.382c0.839,0.09,1.977,0.244,3.265,0.401c0.364,9.139,1.366,18.239,1.718,27.381
		c0.245,6.436,5.645,9.803,11.232,11.352c0.337,0.094,0.813-0.094,1.112-0.344c0.549,0.281,1.718-0.156,1.498-0.699
		c-2.354-5.822-6.452-10.012-7.16-16.539c-0.744-6.865-2.524-13.75-2.708-20.673c3.324,0.101,6.469-0.241,7.731-1.812
		c4.112-5.117-0.778-16.68-0.992-22.622c-0.004-0.1-0.096-0.157-0.23-0.182c-0.07-0.319-0.134-0.639-0.188-0.96
		c0.06,0,0.119-0.002,0.179-0.002c3.03-0.031,6.063-0.494,8.502-2.387c2.942-2.283,0.899-7.381-0.062-10.07
		c-1.231-3.443-3.439-6.364-6.106-8.796c2.61-0.641,5.731-1.792,7.238-3.443c0.657-0.719,0.728-0.631,0.612-1.535
		c-0.141-0.269-0.31-0.52-0.505-0.756c-1.773-2.578-0.659-5.035,0.679-7.606C200.786,69.755,200.355,57.452,191.561,56.153z
		 M126.473,97.508c-0.835,1.625-1.674,3.247-2.495,4.878c-0.001-5.698-0.054-11.058-1.197-16.464
		c0.13,0.449,0.257,0.868,0.388,1.223C124.426,90.547,125.613,93.981,126.473,97.508z M127.437,102.966
		c-0.023,0.117,0.004,0.225,0.055,0.316c-0.029,0.097-0.017,0.18,0.004,0.232c0.098,0.258,0.422,0.301,0.825,0.301
		c0.494,0.008,0.99,0.011,1.503-0.095c0.44-0.058,0.879-0.09,1.319-0.123c0.589-0.043,1.198-0.088,1.813-0.195
		c0.425-0.085,0.704-0.089,0.761-0.071c0.008,0.004,0.07,0.032,0.078,0.035c0.003,0.02-0.028,0.089-0.11,0.144
		c-0.183,0.123-0.56,0.152-0.896,0.178c-0.251,0.019-0.513,0.039-0.727,0.097c-0.203,0.051-0.403,0.106-0.603,0.161
		c-0.505,0.136-0.984,0.266-1.477,0.328c-0.071,0.008-0.152,0.013-0.243,0.018c-0.482,0.028-1.215,0.072-1.48,0.605
		c-0.121,0.278-0.031,0.473,0.034,0.565c0.277,0.389,1.043,0.368,1.869,0.306c0.113-0.009,0.203-0.016,0.257-0.016
		c0.205,0,0.436-0.06,0.682-0.124c0.27-0.069,0.727-0.188,0.817-0.066c0.096,0.12,0.116,0.197,0.104,0.219
		c-0.073,0.155-0.687,0.296-1.316,0.297l-0.113,0.011c-0.414,0.041-0.885,0.088-1.288,0.169c-0.082,0.01-0.166,0.01-0.248,0.01
		c-0.335,0.004-0.789-0.015-1.091,0.437c-0.397,0.619-1.454,1.682-1.632,1.763c-0.338,0.031-0.657,0.102-0.964,0.169
		c-0.166,0.037-0.333,0.074-0.487,0.103c-0.282,0.033-0.57,0.083-0.863,0.136c-0.094,0.017-0.191,0.03-0.287,0.046
		c0.661-1.426,0.589-2.875,0.557-4.676c-0.003-0.198-0.039-0.386-0.09-0.57c0.007-0.001,0.015-0.003,0.021-0.005
		c0.548,0.123,1.346-0.064,1.651-0.524c0.13-0.075,0.261-0.156,0.393-0.261l0.124-0.096c0.431-0.342,0.803-0.637,1.274-0.637
		c0.806,0,1.624-0.073,2.416-0.143c0.792-0.071,1.542-0.137,2.28-0.137c0.214,0,0.386,0.018,0.499,0.041
		c-0.009,0.007-0.017,0.012-0.026,0.018c-0.307,0.169-2.669,0.345-3.675,0.42c-0.42,0.032-0.747,0.056-0.914,0.076
		C127.933,102.496,127.507,102.623,127.437,102.966z M118.07,82.489c0.192,0.709,0.31,1.428,0.322,2.162
		c0.001,0.083,0.004,0.139,0.008,0.199c-0.032-0.087-0.08-0.177-0.158-0.239c-0.369-0.294-0.682-0.669-0.998-1.016
		c-0.43-0.472-0.809-0.914-1.192-1.33c0.623-0.097,1.219-0.264,1.803-0.478C117.925,82.022,118.007,82.252,118.07,82.489z
		 M116.425,78.549c0.062,0.151,0.129,0.304,0.196,0.46c0.078,0.181,0.243,0.282,0.441,0.325c0.192,0.562,0.376,1.127,0.56,1.691
		c-0.399,0.168-0.805,0.3-1.237,0.377c-0.002-0.758,0.063-1.919-0.2-2.826C116.265,78.565,116.347,78.567,116.425,78.549z
		 M112.232,77.814c0.428,0.278,2.062,0.588,2.208,0.962c0.24,0.615,0.251,1.467,0.249,2.209c-0.31-0.239-0.647-0.467-1.032-0.681
		c-1.078-0.597-2.19-1.098-3.158-1.873c-0.925-0.74-1.516-1.745-2.462-2.466c-0.084-0.157-0.124-0.33-0.13-0.509
		c0.576,0.222,1.093,0.644,1.641,0.922C110.454,76.842,111.375,77.262,112.232,77.814z M106.615,70.203
		c0.333,0.215,0.672,0.299,0.793,0.688c-0.02,0.02-0.038,0.04-0.054,0.06C107.112,70.694,106.865,70.444,106.615,70.203z
		 M94.846,97.917c0.016-4.358,4.023-9.506,6.01-13.261c1.67-3.155,0.821-6.97,5.382-8.357c-0.013,0.035-0.005,0.066,0.03,0.089
		c0.065,0.044,0.118,0.101,0.181,0.146c0.091,0.143,0.208,0.276,0.375,0.388c0.041,0.028,0.099,0.04,0.161,0.048
		c0.848,0.773,1.525,1.712,2.434,2.44c1.254,1.003,2.927,1.401,4.186,2.408c1.281,1.025,2.386,3.837,4.207,3.996
		c2.306,0.201,2.471-1.552,2.05-3.486c0.2,0.416,0.384,0.84,0.555,1.269c1.693,5.935,1.87,11.738,1.884,17.905
		c-1.484-0.943-3.427-1.557-4.479-1.979c-2.657-1.065-6.322-2.652-9.143-3.019c-1.9-0.246-1.275-0.559-0.748-1.911
		c0.669-1.718,0.981-3.449,1.456-5.223c0.145-0.543-1.527-0.289-1.666,0.234c-0.4,1.492-0.593,3.008-1.156,4.454
		c-0.342,0.878-0.885,1.404-1.057,2.14c-1.342,0.047-2.559,0.23-3.947,0.716c-0.988,0.345-0.724,1.429,0.288,1.074
		c1.536-0.537,2.815-0.671,4.439-0.644c0.126,0.002,0.256-0.036,0.383-0.087c3.312,0.712,6.618,1.92,9.809,3.028
		c1.824,0.634,3.758,1.546,5.285,2.725c1.818,1.403,1.011,4.969-0.083,6.76c-4.815-0.445-9.059-1.306-13.593-3.347
		c-2.167-0.976-6.28-1.689-9.351-3.274c-0.018-0.015-0.041-0.026-0.068-0.036C96.485,101.972,94.839,100.384,94.846,97.917z
		 M100.068,119.841c3.199,1.702,6.973,2.89,10.307,3.565c0.071,0.015,0.148,0.028,0.22,0.043c-0.182,0.154-0.3,0.339-0.282,0.548
		c1.029,11.972,0.385,24.149,0.727,36.157c0.075,2.656,0.21,4.734,0.914,6.68c-2.376,0.707-6.943,2.061-8.996,1.266
		c-0.315-0.541-0.646-1.084-1.014-1.627c-0.225-0.334-0.896-0.211-1.204-0.143c1.435-0.324,2.209-24.549,2.24-26.292
		C103.099,133.472,101.13,126.453,100.068,119.841z M114.974,177.502c-7.199,0.111-8.838-3.586-11.18-7.914
		c2.911-0.117,6.616-1.203,8.578-1.77c0.556,1.164,1.348,2.305,2.505,3.525C117.32,173.926,122.814,177.379,114.974,177.502z
		 M114.29,165.008c-0.078,0.105-0.131,0.221-0.114,0.354c0.025,0.186,0.061,0.363,0.102,0.533c-0.001,0.229-0.012,0.459-0.01,0.688
		c0.001,0.09,0.125,0.133,0.301,0.143c0.969,2.088,3.369,2.662,5.714,3.066c1.795,0.309,3.825,0.469,5.085,1.949
		c1.963,2.305-1.464,2.656-3.466,2.791c-3.199-3.174-7.853-5.314-8.374-10.32c-0.472-4.545-0.351-9.199-0.423-13.76
		c-0.138-8.842,0.218-17.813-0.504-26.636c2.107,0.339,4.357,0.49,6.389-0.038C119.421,137.445,114.533,151.307,114.29,165.008z
		 M113.918,123.075c-2.93-0.339-5.716-1.336-8.462-2.356c-1.409-0.524-3.787-1.301-5.62-2.429c-0.019-0.137-0.041-0.275-0.059-0.412
		c-0.046-0.352-0.516-0.436-1.015-0.355c-1.325-1.11-2.005-2.5-1.033-4.247c0.856-1.537,0.221-3.844,0.516-5.542
		c0.189-1.088,0.343-2.111,0.445-3.168c1.922,0.838,3.861,1.421,4.971,1.752c6.441,1.921,11.283,4.007,18.058,4.576
		c0.351,0.03,0.778-0.203,0.989-0.458c0.032,0.123,0.107,0.235,0.244,0.325C122.893,116.576,122.48,124.062,113.918,123.075z
		 M151.918,115.253c-3.084,0.427-6.926-0.914-9.9-1.569c-5.81-1.281-11.519-3.194-17.36-4.324c0.103-0.016,0.205-0.036,0.31-0.049
		c0.18-0.033,0.355-0.071,0.527-0.109c0.302-0.067,0.589-0.131,0.913-0.161c0.454-0.076,1.711-1.506,2.041-2.018
		c0.107-0.16,0.245-0.176,0.578-0.176c0.116,0,0.231-0.001,0.367-0.017c0.4-0.08,0.837-0.124,1.257-0.165l0.084-0.01
		c0.355,0,1.531-0.045,1.81-0.623c0.084-0.174,0.121-0.459-0.172-0.827c-0.327-0.416-0.933-0.261-1.415-0.134
		c-0.2,0.051-0.406,0.105-0.538,0.105c-0.062,0-0.169,0.007-0.299,0.016c-0.981,0.075-1.288,0.003-1.336-0.049
		c0.11-0.221,0.659-0.254,0.989-0.273c0.102-0.006,0.194-0.012,0.276-0.021c0.539-0.068,1.06-0.209,1.562-0.346
		c0.194-0.053,0.392-0.107,0.597-0.158c0.167-0.046,0.39-0.063,0.626-0.081c0.423-0.033,0.863-0.067,1.173-0.274
		c0.248-0.166,0.392-0.437,0.36-0.689c-0.025-0.225-0.177-0.406-0.391-0.485c-0.2-0.097-0.575-0.091-1.128,0.019
		c-0.577,0.101-1.172,0.145-1.747,0.188c-0.451,0.033-0.902,0.067-1.37,0.129c-0.423,0.084-0.806,0.084-1.305,0.086
		c-0.127-0.002-0.22,0-0.291-0.005c-0.002-0.044-0.027-0.085-0.052-0.125c-0.005-0.009-0.003-0.021-0.009-0.03
		c0.053-0.023,0.138-0.05,0.265-0.078c0.135-0.016,0.453-0.04,0.862-0.07c2.289-0.171,3.591-0.301,3.949-0.514
		c0.119-0.086,0.477-0.347,0.364-0.691c-0.059-0.184-0.243-0.428-1.153-0.428c-0.764,0-1.562,0.07-2.331,0.14
		c-0.778,0.069-1.584,0.14-2.365,0.14c-0.472,0-0.851,0.195-1.2,0.439c1.395-2.758,2.802-5.509,4.222-8.252
		c2.715-5.247,3.357-9.885,11.241-8.221c5.951,1.254,11.985,1.918,17.961,3.015c7.563,1.389,2.813,5.531,1.052,8.229
		c-1.4,2.146-2.557,4.479-3.782,6.727C156.816,104.138,152.18,115.216,151.918,115.253z M166.285,107.524
		c-0.369-0.385-1.092-0.437-1.615-0.475l-0.276-0.026c-0.685-0.087-1.004-0.183-1.147-0.242c0.254-0.024,0.685,0.015,0.846,0.032
		c0.132,0.013,0.24,0.021,0.29,0.021h0.003c0.169,0.012,0.33,0.017,0.482,0.023c0.462,0.017,0.862,0.031,1.366,0.196
		c0.581,0.151,1.026,0.212,1.646,0.228c-0.278,0.698-0.085,1.482,0.761,2.366c-0.604,0.445-1.129,1.017-1.637,1.572
		c-0.13,0.144-0.26,0.286-0.403,0.442c-0.288,0.361-0.569,0.666-0.859,0.938l-0.206,0.144c-0.321,0.228-0.753,0.533-1.156,0.707
		c0.191-0.275,0.446-0.555,0.666-0.797l0.132-0.15c0.195-0.182,0.479-0.366,0.778-0.561c0.566-0.367,1.152-0.746,1.367-1.257
		c0.033-0.079,0.03-0.169-0.009-0.245c-0.04-0.076-0.109-0.131-0.194-0.149c-0.372-0.085-1.074,0.228-2.069,0.762l-0.115,0.064
		c-0.201,0.078-0.484,0.248-0.812,0.445c-0.266,0.157-0.73,0.434-1.128,0.618c0.257-0.188,0.563-0.371,0.817-0.522
		c0.124-0.074,0.239-0.144,0.324-0.196c1.841-0.974,1.771-1.357,1.737-1.541c-0.029-0.155-0.15-0.352-0.563-0.403
		c-0.546-0.073-1.226,0.175-1.84,0.396c-0.214,0.078-0.417,0.151-0.589,0.2c-0.167,0.048-0.364,0.119-0.575,0.196
		c-0.348,0.126-0.746,0.269-1.103,0.335c0.016-0.098,0.03-0.196,0.046-0.294c0.706-0.512,2.138-0.912,2.864-1.111
		c0.211-0.059,0.399-0.11,0.565-0.162c0.073-0.028,0.172-0.06,0.285-0.098c0.729-0.244,1.347-0.48,1.465-0.91
		C166.463,107.965,166.481,107.756,166.285,107.524z M165.033,167.285c-1.046,3.051,0.686,2.605-1.553,2.293
		c-1.376-0.193-3.021,0.703-4.237,1.215c-1.384,0.578-2.733,1.242-4.112,1.834c-2.274,0.977,2.165-4.182,2.126-4.15
		c1.548-1.326,3.065-2.596,4.463-3.971c0.013,0.002,0.012,0.01,0.027,0.01c1.149,0.039,2.277,0.291,3.401-0.02
		c0.626-0.172,1.055-0.756,1.518-1.225C166.083,164.578,165.51,165.898,165.033,167.285z M169.824,153.523
		c-0.307,3.387-1.595,6.258-2.898,9.166c-0.049,0.004-0.097,0.018-0.134,0.043c-0.387,0.273-0.701,0.563-1.01,0.924
		c-0.894,1.047-2.581,0.627-3.791,0.57c1.283-1.293,2.461-2.686,3.45-4.32c3.799-6.27,1.66-17.771,1.45-24.992
		c1.081,0.075,2.172,0.135,3.274,0.199c-0.088,0.096-0.153,0.201-0.152,0.322C170.075,141.476,170.368,147.496,169.824,153.523z
		 M179.375,164.918c0.697,0.883,1.582,1.559,2.811,1.547c0.713-0.006,1.411-0.129,2.021-0.418c1.346,2.373,3.154,4.563,4.316,7.047
		C183.16,171.498,180.62,168.854,179.375,164.918z M181.309,154.521c0.547,3.145,0.694,6.078,1.765,9.111
		c0.264,0.746,0.612,1.455,0.994,2.152c-0.96,0.5-2.197,0.492-3.173,0.006c-0.834-0.42-1.382-1.363-1.838-2.137
		c-0.007-0.014-0.026-0.012-0.037-0.02c-0.398-1.695-0.621-3.596-0.758-5.73c-0.473-7.359-1.163-14.703-1.47-22.074
		c0.703,0.074,1.425,0.138,2.157,0.189C179.06,142.162,180.259,148.496,181.309,154.521z M185.889,113.628
		c0.021,0.135,0.103,0.222,0.202,0.288c0.421,4.598,1.664,9.036,1.831,13.683c0.149,4.152-1.004,7.164-5.714,7.219
		c-0.559,0.007-1.117-0.01-1.676-0.016c-0.254-0.234-0.795-0.203-1.184-0.011c-0.958-0.022-1.916-0.06-2.874-0.106
		c-0.226-0.12-0.548-0.119-0.836-0.035c-2.223-0.119-4.444-0.281-6.659-0.422c-0.721-0.046-1.448-0.087-2.167-0.139
		c-0.136-0.171-0.525-0.181-0.903-0.074c-4.882-0.433-9.104-1.641-7.959-8.402c0.389-2.289,0.761-4.209,1.378-6.319
		c0.743-2.544,1.319-5.273,1.785-8.059c0.465-0.054,0.964-0.225,1.392-0.38c0.197-0.072,0.38-0.14,0.536-0.183
		c0.183-0.052,0.396-0.13,0.628-0.212c0.508-0.184,1.146-0.424,1.536-0.37c-0.184,0.173-0.611,0.479-1.355,0.873
		c-0.102,0.064-0.212,0.13-0.33,0.201c-0.632,0.375-1.345,0.8-1.572,1.334c-0.063,0.143,0.003,0.308,0.141,0.373
		c0.504,0.226,1.277-0.186,2.331-0.812c0.293-0.176,0.572-0.342,0.755-0.416l0.153-0.079c0.281-0.154,0.518-0.275,0.713-0.369
		c-0.13,0.09-0.266,0.178-0.398,0.262c-0.324,0.211-0.628,0.408-0.876,0.645l-0.149,0.165c-0.397,0.44-0.892,0.985-1.063,1.522
		c-0.032,0.089-0.014,0.185,0.039,0.26c0.057,0.074,0.141,0.117,0.234,0.117c0.701,0,1.477-0.549,2.044-0.95l0.228-0.165
		c0.347-0.318,0.648-0.646,0.939-1.012c0.129-0.141,0.262-0.285,0.394-0.43c0.496-0.545,1.009-1.112,1.582-1.524
		c0.019-0.014,0.019-0.038,0.033-0.054c0.044,0.039,0.075,0.076,0.122,0.115c0.39,0.33,1.179,0.161,1.644-0.192
		c4.8,0.791,9.65,0.683,14.512,0.604c-0.008,0.051-0.026,0.1-0.019,0.155C185.453,111.696,185.731,112.648,185.889,113.628z
		 M195.202,77.393c-1.018,1.958-1.472,3.866-0.502,5.916c1.312,2.768-3.463,4.596-6.021,5.191c-0.689-0.58-1.41-1.12-2.144-1.638
		c0.188-0.137,0.253-0.27,0.03-0.331c-0.296-0.082-0.586-0.17-0.875-0.26c-0.024-0.016-0.047-0.034-0.071-0.05
		c-0.098-0.064-0.231-0.093-0.383-0.099c-1.026-0.348-2.008-0.78-2.924-1.42c-1.15-0.804-0.97-1.883-1.554-2.876
		c-1.103-1.876-0.887-4.046-0.117-5.978c1.339,1.303,2.773,2.814,2.285,4.174c-0.188,0.527,1.478,0.312,1.668-0.222
		c0.657-1.83-1.07-3.104-2.291-4.241c-3.008-2.803-4.474-5.942-3.525-10.015c0.005-0.021-0.003-0.035-0.003-0.053
		c2.5-2.758,6.561-3.536,9.938-4.75c1.091-0.393,0.109-1.125-0.699-0.834c-3.686,1.325-7.729,2.246-10.49,5.116
		c-2.267-0.394-4.537-0.219-6.814-1.033c-1.694-0.606-3.884-1.529-5.729-1.257c-2.146,0.316-4.868,2.335-3.133,4.627
		c0.171,0.226,0.69,0.175,1.096,0.007c-0.577,5.224,0.752,10.351,5.893,12.513c-1.664,1.306-1.949,4.962-0.291,6.156
		c1.177,0.85,3.704,0.1,4.889-0.363c1.997-0.785,3.703-2.572,5.346-4.067c0.107,0.263,0.224,0.525,0.373,0.78
		c0.214,0.365,0.206,1.151,0.411,1.599c0.251,0.544,0.745,0.957,1.188,1.336c0.773,0.666,1.761,1.095,2.763,1.434
		c-0.106,0.119-0.127,0.232-0.004,0.313c5.793,3.811,9.53,9.003,11.104,15.784c1.435,6.181-5.015,6.515-9.522,6.547
		c-4.908,0.034-9.724,0.152-14.559-0.875c-2.107-2.368,4.113-3.153,5.754-3.642c3.453-1.03,7.509-0.577,10.741-2.228
		c0.343-0.175,0.766-0.533,0.631-0.936c0.345-0.106,0.681-0.149,0.969-0.047c0.495,0.175,2.015-0.556,1.336-0.797
		c-1.044-0.368-1.879-0.137-2.753,0.188c-1.689-2.264-3.813-4.15-5.352-6.539c-0.511-0.793-2.678,0.025-2.074,0.964
		c1.478,2.294,3.499,4.122,5.152,6.27c-3.691,0.799-14.369,2.07-16.718,4.958c-0.004,0-0.006-0.003-0.009-0.003
		c-0.771,0-1.195-0.05-1.813-0.211c-0.566-0.185-1.023-0.202-1.511-0.218c-0.146-0.006-0.302-0.012-0.481-0.023
		c-0.055,0-0.147-0.008-0.258-0.02c-0.626-0.058-1.175-0.09-1.439,0.151c-0.097,0.089-0.15,0.209-0.15,0.34
		c0,0.565,0.846,0.751,1.819,0.875l0.25,0.02c0.384,0.028,1.026,0.074,1.249,0.29c-0.07,0.178-0.84,0.434-1.094,0.517
		c-0.123,0.043-0.231,0.078-0.29,0.102c-0.144,0.043-0.324,0.094-0.53,0.151c-0.807,0.222-1.825,0.51-2.595,0.921
		c0.593-3.928,0.99-7.918,1.318-11.626c0.825-1.403,1.676-2.804,2.581-4.21c1.988-3.085,2.168-4.752-1.35-6.119
		c-0.852-0.332-1.735-0.624-2.638-0.894c0.335-0.041,0.707-0.163,0.814-0.318c1.212-1.762,1.941-6.411,4.659-6.235
		c0.381,0.024,1.722-0.651,0.936-0.702c-1.025-0.067-1.977,0.105-2.812,0.547c-0.029-0.082-0.087-0.163-0.179-0.241
		c-3.761-3.206-3.998-10.764-4.088-15.254c-0.053-2.644,0.66-4.89,1.776-7.29c1.35-2.904,5.003-4.045,7.041-6.415
		c0.106-0.124,0.145-0.23,0.154-0.328c0.07-0.061,0.125-0.127,0.147-0.2c0.31-1.026,1.119-0.778,1.852-1.051
		c2.979-1.117,6.709-1.538,9.88-1.28c4.031,0.327,7.806,4.593,8.171,8.432c0.022,0.23,0.385,0.275,0.766,0.207
		c-0.229,0.213-0.279,0.43,0.154,0.494C200.202,58.545,198.159,71.71,195.202,77.393z M169.943,80.367
		c0.056-0.012,0.094-0.034,0.141-0.051c0.094,0.027,0.175,0.064,0.271,0.09c0.42,0.114,1.32-0.506,0.66-0.685
		c-6.661-1.805-7.768-8.015-6.757-13.851c0.683-0.678,1.364-1.356,2.046-2.035c1.04,0.257,2.064,0.57,3.067,0.936
		c0.885,0.305,1.827,0.778,2.757,0.932c1.13,0.189,1.204,0.193,2.365,0.189c2.128-0.006,2.041,0.542,2.094,2.313
		c0.074,2.393,0.99,4.067,2.394,5.923c0.159,0.21,0.367,0.439,0.603,0.68c-0.004,0.006-0.013,0.011-0.017,0.017
		c-0.951,1.733-1.498,3.741-1.13,5.651c-1.992,1.704-3.923,3.963-6.458,4.698c-1.634,0.475-3.052-0.175-3.004-1.937
		C168.991,82.641,169.233,80.526,169.943,80.367z"/>
	<path style="fill:#454D51;" d="M118.987,62.326c-0.002-0.135-0.04-0.258-0.147-0.359c-0.062-0.1-0.325,0.004-0.395,0.05
		c-0.321,0.219-3.039,1.468-2.641,2.157c0.059,0.101,0.327-0.007,0.394-0.051c0.79-0.526,1.697-0.619,2.517-0.987
		c0.398-0.177,0.553-0.337,0.485-0.787C119.193,62.304,119.091,62.304,118.987,62.326z M117.468,63.364
		c-0.292,0.137-0.59,0.269-0.855,0.384C116.878,63.597,117.161,63.467,117.468,63.364z"/>
	<path style="fill:#454D51;" d="M124.866,60.922l0.09,0.135c0.09,0.451,1.082,0.18,1.308,0c0.225-0.18,0.361-0.361,0.676-0.496
		c0.226-0.135,0.722-0.135,0.857-0.316C127.391,60.11,124.595,60.245,124.866,60.922z"/>
	<path style="fill:#454D51;" d="M120.655,48.278c-0.716,0.12-0.476,0.94,0.22,0.823c1.877-0.316,3.687-0.063,5.443-0.919
		c1.252-0.61,2.106-1.76,2.796-2.927c0.327-0.558-0.809-0.61-1.076-0.158c-0.655,1.111-1.429,1.98-2.602,2.552
		C124.042,48.329,122.171,48.023,120.655,48.278z"/>
	<path style="fill:#454D51;" d="M126.571,52.226c-0.502,0.363,0.62,0.344,0.885,0.152c2.726-1.975,4.789-4.27,4.313-7.84
		c-0.048-0.346-1.167-0.095-1.117,0.298C131.106,48.229,129.153,50.354,126.571,52.226z"/>
	<path style="fill:#454D51;" d="M125.252,67.979c-0.333,0.11-1.096,0.413-0.707,0.841c0.229,0.254,0.794,0.086,1.263-0.087
		c0.02,0,0.042-0.002,0.062-0.002c0.016,0.044,0.057,0.079,0.163,0.068c0.646-0.063,3.273-0.934,2.985-1.942
		c-0.194-0.686-1.091-0.953-1.516-1.502c-0.837-1.08-2.112-1.607-2.326-3.095c-0.025-0.185-0.473-0.076-0.445,0.118
		c0.206,1.443,1.437,2.165,2.359,3.164c0.37,0.4,0.629,0.644,1.102,0.943c1.022,0.644-0.548,1.482-1.509,1.843
		c-0.003-0.016-0.012-0.027-0.033-0.035c0.005-0.024,0.022-0.039,0.023-0.066c0.003-0.092-0.124-0.094-0.189-0.08
		c-0.104,0.021-0.299,0.042-0.42,0.091c-0.11,0.052-0.214,0.107-0.319,0.168c-0.251,0.283-0.4,0.207-0.442-0.23
		C125.562,68.091,125.514,67.889,125.252,67.979z"/>
</g>
</svg>
